<?xml version="1.0"?>
<svg xmlns="http://www.w3.org/2000/svg" xmlns:xlink="http://www.w3.org/1999/xlink" version="1.1" id="Capa_1" x="0px" y="0px" viewBox="0 0 512 512" style="enable-background:new 0 0 512 512;" xml:space="preserve" width="512px" height="512px" class=""><g><g>
	<g>
		<path d="M186.091,178.215c0-15.834,3.551-30.851,9.887-44.308H73.845c-24.431,0-44.308,19.876-44.308,44.308    s19.876,44.308,44.308,44.308h109.648l-56.646,56.645c-8.369,8.369-12.977,19.495-12.977,31.331s4.609,22.961,12.977,31.33    c8.368,8.369,19.495,12.977,31.331,12.977s22.961-4.609,31.329-12.977l65.461-65.461    C214.839,261.811,186.091,223.309,186.091,178.215z" data-original="#000000" class="active-path" data-old_color="#ffffff" fill="#ffffff"/>
	</g>
</g><g>
	<g>
		<path d="M447.999,0H310.153c-19.002,0-34.462,15.459-34.462,34.462v70.394c-0.695,0.14-1.38,0.304-2.068,0.463    c-0.441,0.102-0.886,0.197-1.324,0.306c-0.654,0.163-1.3,0.346-1.947,0.527c-0.464,0.13-0.927,0.257-1.387,0.395    c-0.631,0.19-1.256,0.392-1.881,0.598c-0.464,0.153-0.927,0.308-1.385,0.47c-0.615,0.217-1.227,0.44-1.835,0.672    c-0.456,0.174-0.909,0.354-1.36,0.538c-0.602,0.243-1.202,0.488-1.796,0.747c-0.443,0.193-0.88,0.396-1.318,0.597    c-0.593,0.272-1.186,0.541-1.77,0.827c-0.413,0.202-0.816,0.418-1.225,0.628c-2.102,1.08-4.146,2.255-6.127,3.522    c-0.413,0.264-0.829,0.522-1.237,0.794c-0.51,0.341-1.009,0.695-1.51,1.049c-0.423,0.297-0.848,0.594-1.265,0.9    c-0.482,0.354-0.958,0.72-1.432,1.085c-0.421,0.325-0.841,0.653-1.254,0.987c-0.458,0.369-0.911,0.744-1.361,1.124    c-0.416,0.352-0.825,0.708-1.233,1.068c-0.433,0.383-0.865,0.767-1.291,1.161c-0.412,0.381-0.814,0.771-1.217,1.16    c-0.404,0.391-0.809,0.778-1.204,1.178c-0.424,0.429-0.836,0.871-1.249,1.311c-0.356,0.378-0.719,0.749-1.067,1.135    c-0.724,0.8-1.432,1.616-2.121,2.447c-0.278,0.336-0.542,0.683-0.813,1.024c-0.434,0.542-0.869,1.084-1.289,1.639    c-0.175,0.232-0.347,0.468-0.52,0.703c-0.124,0.168-0.241,0.342-0.364,0.511c-0.372,0.513-0.743,1.026-1.102,1.549    c-0.291,0.424-0.572,0.855-0.855,1.285c-0.305,0.465-0.61,0.929-0.906,1.402c-0.04,0.065-0.079,0.131-0.119,0.195    c-0.267,0.43-0.529,0.863-0.788,1.3c-0.324,0.545-0.64,1.096-0.95,1.65c-0.246,0.439-0.49,0.878-0.727,1.322    c-0.312,0.585-0.611,1.176-0.908,1.769c-0.213,0.426-0.429,0.85-0.635,1.281c-0.318,0.669-0.618,1.346-0.917,2.024    c-0.161,0.367-0.332,0.73-0.488,1.101c-0.234,0.556-0.449,1.122-0.669,1.684c-0.126,0.322-0.257,0.642-0.379,0.966    c-0.065,0.174-0.139,0.345-0.203,0.519c-0.068,0.186-0.127,0.377-0.194,0.563c-0.08,0.221-0.153,0.447-0.23,0.669    c-0.136,0.391-0.274,0.78-0.403,1.174c-0.096,0.292-0.195,0.581-0.288,0.873c-0.098,0.313-0.187,0.63-0.283,0.945    c-0.117,0.389-0.232,0.779-0.344,1.171c-0.116,0.411-0.231,0.82-0.341,1.234c-0.071,0.27-0.143,0.54-0.211,0.81    c-0.084,0.333-0.161,0.669-0.24,1.002c-0.123,0.516-0.241,1.032-0.352,1.552c-0.031,0.144-0.068,0.287-0.097,0.431    c-0.057,0.271-0.106,0.544-0.16,0.817c-0.02,0.102-0.037,0.205-0.057,0.307c-0.096,0.499-0.192,0.997-0.278,1.501    c-0.054,0.313-0.107,0.627-0.158,0.941c-0.052,0.329-0.097,0.66-0.146,0.99c-0.057,0.391-0.115,0.782-0.165,1.175    c-0.056,0.434-0.102,0.871-0.152,1.309c-0.039,0.355-0.08,0.71-0.114,1.067c-0.025,0.26-0.052,0.519-0.075,0.78    c-0.051,0.598-0.085,1.2-0.122,1.802c-0.021,0.336-0.049,0.67-0.066,1.007c-0.006,0.13-0.015,0.26-0.02,0.391    c-0.044,1.073-0.07,2.152-0.07,3.237c0,1.151,0.028,2.295,0.079,3.434c0.004,0.081,0.01,0.161,0.014,0.242    c0.019,0.38,0.053,0.754,0.078,1.132c0.043,0.674,0.08,1.349,0.14,2.018c0.015,0.162,0.035,0.322,0.051,0.484    c0.041,0.43,0.097,0.857,0.147,1.285c0.061,0.528,0.113,1.058,0.184,1.583c0.033,0.24,0.074,0.478,0.108,0.718    c0.064,0.434,0.136,0.865,0.208,1.298c0.071,0.43,0.134,0.863,0.213,1.29c0.058,0.318,0.126,0.633,0.189,0.95    c0.083,0.422,0.169,0.842,0.259,1.261c0.074,0.348,0.144,0.696,0.224,1.042c0.091,0.396,0.194,0.788,0.291,1.182    c0.099,0.402,0.196,0.803,0.301,1.202c0.072,0.273,0.143,0.545,0.218,0.817c0.131,0.475,0.277,0.943,0.417,1.415    c0.111,0.372,0.215,0.747,0.331,1.118c0.064,0.205,0.132,0.408,0.198,0.611c0.162,0.5,0.339,0.994,0.512,1.49    c0.072,0.205,0.138,0.411,0.212,0.614c0.067,0.187,0.125,0.377,0.194,0.563c0.051,0.14,0.11,0.277,0.162,0.416    c0.186,0.497,0.385,0.989,0.581,1.48c0.169,0.424,0.331,0.853,0.508,1.273c0.062,0.147,0.126,0.292,0.189,0.439    c0.187,0.436,0.387,0.865,0.581,1.298c0.21,0.464,0.417,0.93,0.635,1.388c0.076,0.16,0.147,0.321,0.224,0.48    c0.175,0.361,0.364,0.713,0.544,1.071c0.24,0.477,0.481,0.953,0.733,1.424c0.101,0.191,0.195,0.386,0.298,0.576    c0.114,0.211,0.239,0.414,0.355,0.623c0.045,0.081,0.093,0.16,0.138,0.241c0.257,0.459,0.515,0.916,0.781,1.368    c0.15,0.254,0.294,0.511,0.446,0.763c0.162,0.268,0.333,0.53,0.498,0.796c0.244,0.393,0.491,0.784,0.742,1.172    c0.204,0.314,0.406,0.63,0.613,0.941c0.168,0.252,0.341,0.501,0.512,0.751c0.222,0.322,0.447,0.641,0.672,0.959    c0.264,0.371,0.528,0.741,0.798,1.107c0.171,0.232,0.342,0.466,0.516,0.697c0.194,0.257,0.395,0.508,0.593,0.763    c0.33,0.424,0.663,0.847,1,1.264c0.171,0.211,0.336,0.427,0.508,0.636c0.162,0.196,0.336,0.384,0.5,0.578    c0.376,0.445,0.757,0.886,1.144,1.322c0.161,0.181,0.315,0.367,0.477,0.546c0.21,0.231,0.426,0.456,0.638,0.684    c0.352,0.38,0.707,0.755,1.066,1.127c0.204,0.211,0.406,0.424,0.612,0.633c0.237,0.24,0.478,0.477,0.718,0.714    c0.313,0.308,0.63,0.613,0.949,0.917c0.25,0.237,0.501,0.474,0.754,0.708c0.266,0.246,0.531,0.493,0.8,0.736    c0.271,0.243,0.545,0.481,0.819,0.721c0.298,0.261,0.602,0.516,0.904,0.772c0.294,0.249,0.585,0.504,0.883,0.749    c0.222,0.182,0.451,0.358,0.675,0.539c0.338,0.271,0.682,0.534,1.025,0.799c0.042,0.033,0.084,0.066,0.127,0.099    c0.294,0.226,0.581,0.463,0.879,0.685c0.171,0.128,0.349,0.247,0.521,0.374c0.335,0.246,0.676,0.483,1.016,0.723    c0.408,0.289,0.808,0.586,1.222,0.867c0.157,0.105,0.316,0.206,0.474,0.31c0.304,0.203,0.615,0.396,0.923,0.595    c0.498,0.322,0.993,0.649,1.5,0.96c0.417,0.256,0.844,0.496,1.266,0.744c0.57,0.335,1.139,0.67,1.719,0.99    c0.455,0.251,0.918,0.489,1.378,0.731c0.501,0.263,1,0.529,1.507,0.78c0.098,0.049,0.197,0.096,0.295,0.145    c0.442,0.217,0.89,0.422,1.337,0.631c0.433,0.202,0.864,0.408,1.302,0.602c0.149,0.066,0.3,0.126,0.45,0.191    c0.482,0.21,0.967,0.413,1.453,0.611c0.365,0.15,0.729,0.305,1.097,0.449c0.123,0.048,0.249,0.091,0.372,0.138    c0.09,0.034,0.181,0.066,0.272,0.1c0.508,0.194,1.018,0.384,1.532,0.567c0.592,0.211,1.189,0.41,1.788,0.607    c0.515,0.168,1.03,0.339,1.55,0.496c0.615,0.187,1.238,0.358,1.86,0.529c0.513,0.141,1.023,0.287,1.541,0.417    c0.662,0.167,1.331,0.314,2,0.463c0.486,0.108,0.969,0.227,1.458,0.326c0.021,0.004,0.041,0.01,0.062,0.014v166.884h206.769v-384    C482.461,15.459,467.001,0,447.999,0z M433.23,137.846c0,8.157-6.613,14.769-14.769,14.769h-78.769    c-8.157,0-14.769-6.613-14.769-14.769V98.462c0-8.157,6.613-14.769,14.769-14.769h78.769c8.157,0,14.769,6.613,14.769,14.769    V137.846z" data-original="#000000" class="active-path" data-old_color="#ffffff" fill="#ffffff"/>
	</g>
</g><g>
	<g>
		<path d="M275.691,448v49.231c0,8.157,6.613,14.769,14.769,14.769h177.231c8.157,0,14.769-6.613,14.769-14.769V448H275.691z" data-original="#000000" class="active-path" data-old_color="#ffffff" fill="#ffffff"/>
	</g>
</g></g> </svg>
